{
    "AAL": [
        "57.0927589138", 
        "9.84924316406"
    ], 
    "AAN": [
        "24.261699676513672", 
        "55.60919952392578"
    ], 
    "AAR": [
        "56.2999992371", 
        "10.619000434899998"
    ], 
    "ABQ": [
        "35.040199279785156", 
        "-106.60900115966797"
    ], 
    "ABX": [
        "-36.06779861450195", 
        "146.95799255371094"
    ], 
    "ABZ": [
        "57.201900482177734", 
        "-2.197779893875122"
    ], 
    "ACE": [
        "28.945499420166016", 
        "-13.605199813842773"
    ], 
    "ADD": [
        "8.97789001465", 
        "38.799301147499996"
    ], 
    "ADE": [
        "12.829500198364258", 
        "45.02880096435547"
    ], 
    "ADL": [
        "-34.94499969482422", 
        "138.531005859375"
    ], 
    "AER": [
        "43.449901580811", 
        "39.956600189209"
    ], 
    "AGA": [
        "30.325000762939453", 
        "-9.413069725036621"
    ], 
    "AGH": [
        "56.29610061645508", 
        "12.847100257873535"
    ], 
    "AGP": [
        "36.67490005493164", 
        "-4.499110221862793"
    ], 
    "AKJ": [
        "43.670799255371094", 
        "142.44700622558594"
    ], 
    "AKL": [
        "-37.008098602299995", 
        "174.792007446"
    ], 
    "ALA": [
        "43.35210037231445", 
        "77.04049682617188"
    ], 
    "ALC": [
        "38.28219985961914", 
        "-0.5581560134887695"
    ], 
    "ALG": [
        "36.691001892089844", 
        "3.215409994125366"
    ], 
    "ALP": [
        "36.18069839477539", 
        "37.22439956665039"
    ], 
    "ALY": [
        "31.183900833129883", 
        "29.94890022277832"
    ], 
    "AMD": [
        "23.0771999359", 
        "72.63469696039999"
    ], 
    "AMM": [
        "31.7226009369", 
        "35.9931983948"
    ], 
    "AMS": [
        "52.3086013794", 
        "4.763889789579999"
    ], 
    "ANC": [
        "61.174400329589844", 
        "-149.99600219726562"
    ], 
    "ANF": [
        "-23.444499969482422", 
        "-70.44509887695312"
    ], 
    "AOJ": [
        "40.73469924926758", 
        "140.6909942626953"
    ], 
    "AOK": [
        "35.4213981628418", 
        "27.145999908447266"
    ], 
    "AQJ": [
        "29.611600875854492", 
        "35.01810073852539"
    ], 
    "AQP": [
        "-16.3411006927", 
        "-71.5830993652"
    ], 
    "ARI": [
        "-18.348499298095703", 
        "-70.33869934082031"
    ], 
    "ARM": [
        "-30.528099060099997", 
        "151.617004395"
    ], 
    "ARN": [
        "59.651901245117", 
        "17.918600082397"
    ], 
    "ASB": [
        "37.98680114746094", 
        "58.361000061035156"
    ], 
    "ASJ": [
        "28.430599212646484", 
        "129.71299743652344"
    ], 
    "ASP": [
        "-23.806699752807617", 
        "133.90199279785156"
    ], 
    "ASU": [
        "-25.239999771118164", 
        "-57.52000045776367"
    ], 
    "ATH": [
        "37.9364013672", 
        "23.9444999695"
    ], 
    "ATL": [
        "33.63669967651367", 
        "-84.4281005859375"
    ], 
    "ATQ": [
        "31.7096004486", 
        "74.7973022461"
    ], 
    "AUA": [
        "12.501399993896484", 
        "-70.01519775390625"
    ], 
    "AUH": [
        "24.433000564575195", 
        "54.651100158691406"
    ], 
    "AUS": [
        "30.194499969482422", 
        "-97.6698989868164"
    ], 
    "AXT": [
        "39.6156005859375", 
        "140.218994140625"
    ], 
    "AYQ": [
        "-25.1861", 
        "130.975998"
    ], 
    "AYT": [
        "36.898701", 
        "30.800501"
    ], 
    "BAH": [
        "26.27079963684082", 
        "50.63359832763672"
    ], 
    "BBA": [
        "-45.916099548339844", 
        "-71.68949890136719"
    ], 
    "BBI": [
        "20.244400024399997", 
        "85.8178024292"
    ], 
    "BCN": [
        "41.297100067139", 
        "2.0784599781036"
    ], 
    "BDA": [
        "32.36399841308594", 
        "-64.67870330810547"
    ], 
    "BDL": [
        "41.9388999939", 
        "-72.68319702149999"
    ], 
    "BDQ": [
        "22.3362007141", 
        "73.2263031006"
    ], 
    "BEG": [
        "44.8184013367", 
        "20.3090991974"
    ], 
    "BES": [
        "48.447898864746094", 
        "-4.418540000915527"
    ], 
    "BEY": [
        "33.820899963378906", 
        "35.488399505615234"
    ], 
    "BFS": [
        "54.6575012207", 
        "-6.2158298492399995"
    ], 
    "BGO": [
        "60.29339981", 
        "5.218140125"
    ], 
    "BHD": [
        "54.618099212646484", 
        "-5.872499942779541"
    ], 
    "BHM": [
        "33.56290054", 
        "-86.75350189"
    ], 
    "BHO": [
        "23.2875003815", 
        "77.3374023438"
    ], 
    "BHX": [
        "52.453899383499994", 
        "-1.74802994728"
    ], 
    "BIO": [
        "43.30110168457031", 
        "-2.9106099605560303"
    ], 
    "BIQ": [
        "43.4683333", 
        "-1.5311111"
    ], 
    "BJX": [
        "20.993499755900004", 
        "-101.481002808"
    ], 
    "BKI": [
        "5.9372100830078125", 
        "116.0510025024414"
    ], 
    "BKK": [
        "13.681099891662598", 
        "100.74700164794922"
    ], 
    "BKQ": [
        "-24.427799224900003", 
        "145.429000854"
    ], 
    "BLL": [
        "55.7402992249", 
        "9.15178012848"
    ], 
    "BLQ": [
        "44.5354", 
        "11.2887"
    ], 
    "BLR": [
        "13.1979", 
        "77.706299"
    ], 
    "BLT": [
        "-23.603099822998047", 
        "148.8070068359375"
    ], 
    "BMA": [
        "59.354400634765625", 
        "17.941699981689453"
    ], 
    "BME": [
        "-17.944700241088867", 
        "122.23200225830078"
    ], 
    "BNA": [
        "36.1245002746582", 
        "-86.6781997680664"
    ], 
    "BNE": [
        "-27.384199142456055", 
        "153.11700439453125"
    ], 
    "BOD": [
        "44.828300476100004", 
        "-0.715556025505"
    ], 
    "BOG": [
        "4.70159", 
        "-74.1469"
    ], 
    "BOJ": [
        "42.56959915161133", 
        "27.515199661254883"
    ], 
    "BOM": [
        "19.0886993408", 
        "72.8678970337"
    ], 
    "BOS": [
        "42.36429977", 
        "-71.00520325"
    ], 
    "BRC": [
        "-41.1511993408", 
        "-71.1575012207"
    ], 
    "BRU": [
        "50.901401519800004", 
        "4.48443984985"
    ], 
    "BUD": [
        "47.436901092499994", 
        "19.255599975599996"
    ], 
    "BWI": [
        "39.17539978", 
        "-76.66829681"
    ], 
    "CAG": [
        "39.251499", 
        "9.05428"
    ], 
    "CAI": [
        "30.12190055847168", 
        "31.40559959411621"
    ], 
    "CAN": [
        "23.39240074157715", 
        "113.29900360107422"
    ], 
    "CAP": [
        "19.732999801635742", 
        "-72.1947021484375"
    ], 
    "CBR": [
        "-35.30690002441406", 
        "149.19500732421875"
    ], 
    "CCP": [
        "-36.772701263427734", 
        "-73.06310272216797"
    ], 
    "CCS": [
        "10.6031169891", 
        "-66.9905853271"
    ], 
    "CCU": [
        "22.654699325561523", 
        "88.44670104980469"
    ], 
    "CDG": [
        "49.0127983093", 
        "2.54999995232"
    ], 
    "CEB": [
        "10.307499885559", 
        "123.97899627686"
    ], 
    "CEI": [
        "19.952299118", 
        "99.88289642330001"
    ], 
    "CFS": [
        "-30.3206005096", 
        "153.115997314"
    ], 
    "CFU": [
        "39.601898193359375", 
        "19.911699295043945"
    ], 
    "CGK": [
        "-6.1255698204", 
        "106.65599823"
    ], 
    "CGN": [
        "50.8658981323", 
        "7.1427397728"
    ], 
    "CHC": [
        "-43.48939895629883", 
        "172.53199768066406"
    ], 
    "CHQ": [
        "35.531700134277344", 
        "24.149700164794922"
    ], 
    "CIX": [
        "-6.787479877471924", 
        "-79.8281021118164"
    ], 
    "CJC": [
        "-22.498199462890625", 
        "-68.90360260009766"
    ], 
    "CKG": [
        "29.719200134277344", 
        "106.64199829101562"
    ], 
    "CLE": [
        "41.4117012024", 
        "-81.8498001099"
    ], 
    "CLQ": [
        "19.2770004272", 
        "-103.577003479"
    ], 
    "CLT": [
        "35.2140007019043", 
        "-80.94309997558594"
    ], 
    "CMB": [
        "7.180759906768799", 
        "79.88410186767578"
    ], 
    "CMH": [
        "39.99800109863281", 
        "-82.89189910888672"
    ], 
    "CNS": [
        "-16.885799408", 
        "145.755004883"
    ], 
    "CNX": [
        "18.766799926799997", 
        "98.962600708"
    ], 
    "COK": [
        "10.1520004272", 
        "76.40190124510002"
    ], 
    "COR": [
        "-31.323600769", 
        "-64.2080001831"
    ], 
    "CPH": [
        "55.617900848389", 
        "12.656000137329"
    ], 
    "CPO": [
        "-27.2968997955", 
        "-70.4131011963"
    ], 
    "CPT": [
        "-33.9648017883", 
        "18.6016998291"
    ], 
    "CSG": [
        "32.516300201416016", 
        "-84.93890380859375"
    ], 
    "CTA": [
        "37.466801", 
        "15.0664"
    ], 
    "CTM": [
        "18.50469970703125", 
        "-88.32679748535156"
    ], 
    "CTU": [
        "30.578500747680664", 
        "103.9469985961914"
    ], 
    "CUL": [
        "24.7644996643", 
        "-107.474998474"
    ], 
    "CUN": [
        "21.036500930800003", 
        "-86.8770980835"
    ], 
    "CUR": [
        "12.1889", 
        "-68.959801"
    ], 
    "CUZ": [
        "-13.535699844400002", 
        "-71.9387969971"
    ], 
    "CVG": [
        "39.0488014221", 
        "-84.6678009033"
    ], 
    "CWL": [
        "51.39670181274414", 
        "-3.343329906463623"
    ], 
    "CZM": [
        "20.52239990234375", 
        "-86.92559814453125"
    ], 
    "DAC": [
        "23.843347", 
        "90.397783"
    ], 
    "DAD": [
        "16.043899536132812", 
        "108.1989974975586"
    ], 
    "DAM": [
        "33.4114990234375", 
        "36.51559829711914"
    ], 
    "DAR": [
        "-6.87810993195", 
        "39.202598571799996"
    ], 
    "DBO": [
        "-32.2167015076", 
        "148.574996948"
    ], 
    "DBV": [
        "42.5614013671875", 
        "18.268199920654297"
    ], 
    "DCA": [
        "38.8521", 
        "-77.037697"
    ], 
    "DED": [
        "30.189699173", 
        "78.18029785159999"
    ], 
    "DEL": [
        "28.566499710083008", 
        "77.10310363769531"
    ], 
    "DEN": [
        "39.861698150635", 
        "-104.672996521"
    ], 
    "DFW": [
        "32.89680099487305", 
        "-97.03800201416016"
    ], 
    "DLC": [
        "38.9656982421875", 
        "121.53900146484375"
    ], 
    "DME": [
        "55.40879821777344", 
        "37.90629959106445"
    ], 
    "DMM": [
        "26.471200942993164", 
        "49.79790115356445"
    ], 
    "DPS": [
        "-8.7481698989868", 
        "115.16699981689"
    ], 
    "DRW": [
        "-12.41469955444336", 
        "130.8769989013672"
    ], 
    "DSM": [
        "41.534000396728516", 
        "-93.66310119628906"
    ], 
    "DTW": [
        "42.212398529052734", 
        "-83.35340118408203"
    ], 
    "DUB": [
        "53.42129898071289", 
        "-6.2700700759887695"
    ], 
    "DUR": [
        "-29.6144444444", 
        "31.1197222222"
    ], 
    "DUS": [
        "51.28950119018555", 
        "6.766779899597168"
    ], 
    "DWC": [
        "24.896356", 
        "55.161389"
    ], 
    "DXB": [
        "25.2527999878", 
        "55.3643989563"
    ], 
    "DYU": [
        "38.543300628699996", 
        "68.8249969482"
    ], 
    "EAS": [
        "43.35649871826172", 
        "-1.7906099557876587"
    ], 
    "EDI": [
        "55.95000076293945", 
        "-3.372499942779541"
    ], 
    "EIS": [
        "18.444799423217773", 
        "-64.54299926757812"
    ], 
    "ELH": [
        "25.474899292", 
        "-76.6835021973"
    ], 
    "ELP": [
        "31.80719948", 
        "-106.3779984"
    ], 
    "EMD": [
        "-23.5674991608", 
        "148.179000854"
    ], 
    "ENF": [
        "68.362602233887", 
        "23.424299240112"
    ], 
    "EVN": [
        "40.1473007202", 
        "44.3959007263"
    ], 
    "EWR": [
        "40.692501068115234", 
        "-74.168701171875"
    ], 
    "EXT": [
        "50.73440170288086", 
        "-3.4138898849487305"
    ], 
    "EYW": [
        "24.556100845336914", 
        "-81.75959777832031"
    ], 
    "EZE": [
        "-34.8222", 
        "-58.5358"
    ], 
    "FAE": [
        "62.0635986328125", 
        "-7.277219772338867"
    ], 
    "FCO": [
        "41.8002778", 
        "12.2388889"
    ], 
    "FEZ": [
        "33.9272994995", 
        "-4.977960109709999"
    ], 
    "FKB": [
        "48.7793998718", 
        "8.08049964905"
    ], 
    "FKS": [
        "37.22740173339844", 
        "140.43099975585938"
    ], 
    "FLL": [
        "26.072599411010742", 
        "-80.15270233154297"
    ], 
    "FLR": [
        "43.810001", 
        "11.2051"
    ], 
    "FNC": [
        "32.697898864746", 
        "-16.774499893188"
    ], 
    "FPO": [
        "26.5587005615", 
        "-78.695602417"
    ], 
    "FRA": [
        "50.0333333", 
        "8.5705556"
    ], 
    "FRU": [
        "43.0612983704", 
        "74.4776000977"
    ], 
    "FUE": [
        "28.452699661254883", 
        "-13.863800048828125"
    ], 
    "FUK": [
        "33.585899353027344", 
        "130.4510040283203"
    ], 
    "FWA": [
        "40.97850037", 
        "-85.19509888"
    ], 
    "GAJ": [
        "38.411899566699994", 
        "140.371002197"
    ], 
    "GAU": [
        "26.10610008239746", 
        "91.58589935302734"
    ], 
    "GCM": [
        "19.292800903299998", 
        "-81.3576965332"
    ], 
    "GDL": [
        "20.521799087524414", 
        "-103.31099700927734"
    ], 
    "GDN": [
        "54.377601623535156", 
        "18.46619987487793"
    ], 
    "GGT": [
        "23.5625991821", 
        "-75.8779983521"
    ], 
    "GIB": [
        "36.1511993408", 
        "-5.3496599197400005"
    ], 
    "GLA": [
        "55.8718986511", 
        "-4.43306016922"
    ], 
    "GLT": [
        "-23.869699", 
        "151.223007"
    ], 
    "GND": [
        "12.004199981689453", 
        "-61.78620147705078"
    ], 
    "GOI": [
        "15.3808002472", 
        "73.8313980103"
    ], 
    "GOJ": [
        "56.230098724365", 
        "43.784000396729"
    ], 
    "GOT": [
        "57.662799835205", 
        "12.279800415039"
    ], 
    "GRX": [
        "37.18870162963867", 
        "-3.777359962463379"
    ], 
    "GUM": [
        "13.4834003448", 
        "144.796005249"
    ], 
    "GVA": [
        "46.23809814453125", 
        "6.108950138092041"
    ], 
    "GYE": [
        "-2.1574199199699997", 
        "-79.88359832760001"
    ], 
    "GZP": [
        "36.2992172241", 
        "32.3005981445"
    ], 
    "HAD": [
        "56.69110107421875", 
        "12.820199966430664"
    ], 
    "HAJ": [
        "52.461101532", 
        "9.685079574580001"
    ], 
    "HAM": [
        "53.630401611328", 
        "9.9882297515869"
    ], 
    "HAN": [
        "21.221200942993164", 
        "105.80699920654297"
    ], 
    "HAV": [
        "22.989200592041016", 
        "-82.40910339355469"
    ], 
    "HEL": [
        "60.317199707031", 
        "24.963300704956"
    ], 
    "HER": [
        "35.3396987915", 
        "25.180299758900002"
    ], 
    "HGH": [
        "30.22949981689453", 
        "120.43399810791016"
    ], 
    "HIJ": [
        "34.4361000061", 
        "132.919006348"
    ], 
    "HKD": [
        "41.7700004578", 
        "140.822006226"
    ], 
    "HKG": [
        "22.3089008331", 
        "113.915000916"
    ], 
    "HKT": [
        "8.11320018768", 
        "98.3169021606"
    ], 
    "HNA": [
        "39.4286003112793", 
        "141.13499450683594"
    ], 
    "HND": [
        "35.552299", 
        "139.779999"
    ], 
    "HNL": [
        "21.318700790405273", 
        "-157.9219970703125"
    ], 
    "HRE": [
        "-17.931800842285156", 
        "31.09280014038086"
    ], 
    "HSV": [
        "34.637199401855", 
        "-86.775100708008"
    ], 
    "HTI": [
        "-20.3581008911", 
        "148.95199585"
    ], 
    "HUX": [
        "15.775300025939941", 
        "-96.26260375976562"
    ], 
    "IAD": [
        "38.94449997", 
        "-77.45580292"
    ], 
    "IAH": [
        "29.984399795532227", 
        "-95.34140014648438"
    ], 
    "IBZ": [
        "38.872898101800004", 
        "1.3731199502899998"
    ], 
    "ICN": [
        "37.46910095214844", 
        "126.45099639892578"
    ], 
    "IDR": [
        "22.7217998505", 
        "75.8011016846"
    ], 
    "IGR": [
        "-25.737300872800002", 
        "-54.473400116"
    ], 
    "IND": [
        "39.7173", 
        "-86.294403"
    ], 
    "INN": [
        "47.260201", 
        "11.344"
    ], 
    "INV": [
        "57.54249954223633", 
        "-4.047500133514404"
    ], 
    "IOM": [
        "54.08330154418945", 
        "-4.623889923095703"
    ], 
    "IPC": [
        "-27.1648006439", 
        "-109.42199707"
    ], 
    "IQQ": [
        "-20.535200119018555", 
        "-70.1812973022461"
    ], 
    "IQT": [
        "-3.7847399711608887", 
        "-73.30879974365234"
    ], 
    "ISG": [
        "24.344499588", 
        "124.18699646"
    ], 
    "IVL": [
        "68.607299804688", 
        "27.405300140381"
    ], 
    "IXB": [
        "26.68120002746582", 
        "88.32859802246094"
    ], 
    "IXC": [
        "30.673500061035156", 
        "76.78849792480469"
    ], 
    "IXJ": [
        "32.6890983582", 
        "74.8374023438"
    ], 
    "IXL": [
        "34.1358985901", 
        "77.5465011597"
    ], 
    "IXR": [
        "23.314300537100003", 
        "85.3217010498"
    ], 
    "IZO": [
        "35.4136009216", 
        "132.88999939"
    ], 
    "JAI": [
        "26.8241996765", 
        "75.8122024536"
    ], 
    "JAX": [
        "30.49410057067871", 
        "-81.68789672851562"
    ], 
    "JDH": [
        "26.251100540161133", 
        "73.04889678955078"
    ], 
    "JED": [
        "21.6796", 
        "39.156502"
    ], 
    "JER": [
        "49.20790100097656", 
        "-2.195509910583496"
    ], 
    "JFK": [
        "40.63980103", 
        "-73.77890015"
    ], 
    "JKG": [
        "57.757598876953125", 
        "14.068699836730957"
    ], 
    "JNB": [
        "-26.1392", 
        "28.246"
    ], 
    "JOE": [
        "62.662899017334", 
        "29.607500076294"
    ], 
    "JSI": [
        "39.177101135253906", 
        "23.503700256347656"
    ], 
    "JTR": [
        "36.399200439453125", 
        "25.479299545288086"
    ], 
    "JUL": [
        "-15.467100143432617", 
        "-70.158203125"
    ], 
    "JYV": [
        "62.399501800537", 
        "25.678300857544"
    ], 
    "KAJ": [
        "64.285499572754", 
        "27.692399978638"
    ], 
    "KAO": [
        "65.987602233887", 
        "29.239400863647"
    ], 
    "KBP": [
        "50.345001220703125", 
        "30.894699096679688"
    ], 
    "KBV": [
        "8.09912014008", 
        "98.9861984253"
    ], 
    "KCH": [
        "1.4846999645233154", 
        "110.34700012207031"
    ], 
    "KCZ": [
        "33.5461006165", 
        "133.669006348"
    ], 
    "KEF": [
        "63.985000610352", 
        "-22.605600357056"
    ], 
    "KEM": [
        "65.778701782227", 
        "24.582099914551"
    ], 
    "KGI": [
        "-30.789400100699996", 
        "121.461997986"
    ], 
    "KGS": [
        "36.79330062866211", 
        "27.091699600219727"
    ], 
    "KHH": [
        "22.57710075378418", 
        "120.3499984741211"
    ], 
    "KHI": [
        "24.9065", 
        "67.160797"
    ], 
    "KIJ": [
        "37.9558982849", 
        "139.121002197"
    ], 
    "KIN": [
        "17.935699462890625", 
        "-76.7874984741211"
    ], 
    "KIV": [
        "46.92770004272461", 
        "28.930999755859375"
    ], 
    "KIX": [
        "34.42729949951172", 
        "135.24400329589844"
    ], 
    "KKJ": [
        "33.8459014893", 
        "131.035003662"
    ], 
    "KLR": [
        "56.68550109863281", 
        "16.287599563598633"
    ], 
    "KMG": [
        "25.1019444", 
        "102.9291667"
    ], 
    "KMI": [
        "31.877199173", 
        "131.449005127"
    ], 
    "KMJ": [
        "32.83729934692383", 
        "130.85499572753906"
    ], 
    "KMQ": [
        "36.39459991455078", 
        "136.40699768066406"
    ], 
    "KOJ": [
        "31.80340003967285", 
        "130.718994140625"
    ], 
    "KOK": [
        "63.721199035645", 
        "23.143100738525"
    ], 
    "KRK": [
        "50.077701568603516", 
        "19.784799575805664"
    ], 
    "KRP": [
        "56.29750061035156", 
        "9.124629974365234"
    ], 
    "KRR": [
        "45.034698486328", 
        "39.170501708984"
    ], 
    "KRT": [
        "15.589500427246094", 
        "32.553199768066406"
    ], 
    "KSD": [
        "59.444698333699996", 
        "13.337400436400001"
    ], 
    "KTA": [
        "-20.712200164799995", 
        "116.773002625"
    ], 
    "KTM": [
        "27.6965999603", 
        "85.35910034179999"
    ], 
    "KTP": [
        "17.98859977722168", 
        "-76.82379913330078"
    ], 
    "KTT": [
        "67.700996398926", 
        "24.846799850464"
    ], 
    "KUF": [
        "53.504901885986", 
        "50.16429901123"
    ], 
    "KUH": [
        "43.041000366199995", 
        "144.192993164"
    ], 
    "KUL": [
        "2.745579957962", 
        "101.70999908447"
    ], 
    "KUO": [
        "63.007099151611", 
        "27.797800064087"
    ], 
    "KWI": [
        "29.226600646972656", 
        "47.96889877319336"
    ], 
    "KZN": [
        "55.606201171875", 
        "49.278701782227"
    ], 
    "LAS": [
        "36.08010101", 
        "-115.1520004"
    ], 
    "LAX": [
        "33.94250107", 
        "-118.4079971"
    ], 
    "LBD": [
        "40.21540069580078", 
        "69.6947021484375"
    ], 
    "LCG": [
        "43.302101135253906", 
        "-8.377260208129883"
    ], 
    "LDH": [
        "-31.5382995605", 
        "159.07699585"
    ], 
    "LED": [
        "59.80030059814453", 
        "30.262500762939453"
    ], 
    "LEI": [
        "36.84389877319336", 
        "-2.3701000213623047"
    ], 
    "LGA": [
        "40.77719879", 
        "-73.87259674"
    ], 
    "LGK": [
        "6.329730033874512", 
        "99.72869873046875"
    ], 
    "LGW": [
        "51.148101806640625", 
        "-0.19027799367904663"
    ], 
    "LHR": [
        "51.4706", 
        "-0.461941"
    ], 
    "LIM": [
        "-12.0219", 
        "-77.114304"
    ], 
    "LIS": [
        "38.7812995911", 
        "-9.13591957092"
    ], 
    "LJU": [
        "46.223701", 
        "14.4576"
    ], 
    "LKO": [
        "26.7605991364", 
        "80.8892974854"
    ], 
    "LPA": [
        "27.931900024414062", 
        "-15.38659954071045"
    ], 
    "LPB": [
        "-16.5132999420166", 
        "-68.19229888916016"
    ], 
    "LPQ": [
        "19.897300720214844", 
        "102.16100311279297"
    ], 
    "LPT": [
        "18.27090072631836", 
        "99.50420379638672"
    ], 
    "LRE": [
        "-23.4342002869", 
        "144.279998779"
    ], 
    "LSC": [
        "-29.916200637799996", 
        "-71.1995010376"
    ], 
    "LUN": [
        "-15.3308000565", 
        "28.4526004791"
    ], 
    "LUX": [
        "49.6233333", 
        "6.2044444"
    ], 
    "LVI": [
        "-17.821800231933594", 
        "25.82270050048828"
    ], 
    "LWN": [
        "40.7504005432", 
        "43.859298706100006"
    ], 
    "LYS": [
        "45.7255556", 
        "5.0811111"
    ], 
    "MAA": [
        "12.990005493164062", 
        "80.16929626464844"
    ], 
    "MAD": [
        "40.471926", 
        "-3.56264"
    ], 
    "MAH": [
        "39.86259841918945", 
        "4.218649864196777"
    ], 
    "MAN": [
        "53.35369873046875", 
        "-2.2749500274658203"
    ], 
    "MBJ": [
        "18.503700256347656", 
        "-77.91339874267578"
    ], 
    "MCI": [
        "39.2976", 
        "-94.713898"
    ], 
    "MCO": [
        "28.429399490356445", 
        "-81.30899810791016"
    ], 
    "MCT": [
        "23.593299865722656", 
        "58.284400939941406"
    ], 
    "MDE": [
        "6.16454", 
        "-75.4231"
    ], 
    "MDL": [
        "21.702199935913086", 
        "95.97789764404297"
    ], 
    "MDZ": [
        "-32.8316993713", 
        "-68.7929000854"
    ], 
    "MEL": [
        "-37.673301696777344", 
        "144.84300231933594"
    ], 
    "MEM": [
        "35.04240036010742", 
        "-89.97669982910156"
    ], 
    "MEX": [
        "19.4363", 
        "-99.072098"
    ], 
    "MGA": [
        "12.141500473022461", 
        "-86.16819763183594"
    ], 
    "MHH": [
        "26.511400222800003", 
        "-77.08350372310001"
    ], 
    "MHQ": [
        "60.122200012207", 
        "19.898199081421"
    ], 
    "MHU": [
        "-37.0475006104", 
        "147.333999634"
    ], 
    "MIA": [
        "25.79319953918457", 
        "-80.29060363769531"
    ], 
    "MKY": [
        "-21.171699523900003", 
        "149.179992676"
    ], 
    "MLA": [
        "35.857498", 
        "14.4775"
    ], 
    "MLE": [
        "4.191830158233643", 
        "73.52909851074219"
    ], 
    "MMB": [
        "43.8805999756", 
        "144.164001465"
    ], 
    "MMJ": [
        "36.16680145263672", 
        "137.92300415039062"
    ], 
    "MMX": [
        "55.536305364", 
        "13.376197814900001"
    ], 
    "MMY": [
        "24.782800674399997", 
        "125.294998169"
    ], 
    "MNL": [
        "14.5086", 
        "121.019997"
    ], 
    "MPN": [
        "-51.82279968261719", 
        "-58.447200775146484"
    ], 
    "MRS": [
        "43.439271922", 
        "5.22142410278"
    ], 
    "MRU": [
        "-20.430200576782227", 
        "57.68360137939453"
    ], 
    "MSJ": [
        "40.703201293899994", 
        "141.367996216"
    ], 
    "MSN": [
        "43.13990020751953", 
        "-89.3375015258789"
    ], 
    "MSP": [
        "44.881999969499994", 
        "-93.22180175780001"
    ], 
    "MSQ": [
        "53.882499694824", 
        "28.030700683594"
    ], 
    "MSY": [
        "29.99340057373047", 
        "-90.25800323486328"
    ], 
    "MTT": [
        "18.1033992767", 
        "-94.58070373540001"
    ], 
    "MUC": [
        "48.353801727295", 
        "11.786100387573"
    ], 
    "MVD": [
        "-34.838401794433594", 
        "-56.030799865722656"
    ], 
    "MXL": [
        "32.6305999756", 
        "-115.241996765"
    ], 
    "MXP": [
        "45.6306", 
        "8.72811"
    ], 
    "MYJ": [
        "33.82720184326172", 
        "132.6999969482422"
    ], 
    "NAN": [
        "-17.755399703979492", 
        "177.4429931640625"
    ], 
    "NAP": [
        "40.886002", 
        "14.2908"
    ], 
    "NAS": [
        "25.0389995575", 
        "-77.46620178219999"
    ], 
    "NBO": [
        "-1.31923997402", 
        "36.9277992249"
    ], 
    "NCE": [
        "43.6584014893", 
        "7.215869903560001"
    ], 
    "NCL": [
        "55.037498474121094", 
        "-1.6916699409484863"
    ], 
    "NDR": [
        "34.988800048799995", 
        "-3.0282099247"
    ], 
    "NGB": [
        "29.82670021057129", 
        "121.46199798583984"
    ], 
    "NGO": [
        "34.8583984375", 
        "136.80499267578125"
    ], 
    "NGS": [
        "32.916900634799994", 
        "129.914001465"
    ], 
    "NKG": [
        "31.742000579833984", 
        "118.86199951171875"
    ], 
    "NLK": [
        "-29.04159927368164", 
        "167.93899536132812"
    ], 
    "NOU": [
        "-22.01460075378418", 
        "166.21299743652344"
    ], 
    "NQY": [
        "50.44060134887695", 
        "-4.995409965515137"
    ], 
    "NRT": [
        "35.7647018433", 
        "140.386001587"
    ], 
    "NTE": [
        "47.153198242200006", 
        "-1.61073005199"
    ], 
    "NTL": [
        "-32.79499816894531", 
        "151.83399963378906"
    ], 
    "NUE": [
        "49.498699", 
        "11.0780556"
    ], 
    "OBO": [
        "42.7332992554", 
        "143.216995239"
    ], 
    "OER": [
        "63.40829849243164", 
        "18.989999771118164"
    ], 
    "OIT": [
        "33.479400634799994", 
        "131.736999512"
    ], 
    "OKA": [
        "26.1958007812", 
        "127.646003723"
    ], 
    "OKC": [
        "35.39310073852539", 
        "-97.60070037841797"
    ], 
    "OKJ": [
        "34.7569007874", 
        "133.854995728"
    ], 
    "OLB": [
        "40.898701", 
        "9.51763"
    ], 
    "OMA": [
        "41.303199768066406", 
        "-95.89409637451172"
    ], 
    "OOL": [
        "-28.1644001007", 
        "153.505004883"
    ], 
    "OPO": [
        "41.2481002808", 
        "-8.68138980865"
    ], 
    "ORD": [
        "41.97859955", 
        "-87.90480042"
    ], 
    "ORF": [
        "36.89459991455078", 
        "-76.20120239257812"
    ], 
    "ORK": [
        "51.84130096435547", 
        "-8.491109848022461"
    ], 
    "OSD": [
        "63.194400787354", 
        "14.50030040741"
    ], 
    "OSL": [
        "60.193901062012", 
        "11.100399971008"
    ], 
    "OSS": [
        "40.6090011597", 
        "72.793296814"
    ], 
    "OTP": [
        "44.5711111", 
        "26.085"
    ], 
    "OUL": [
        "64.930099487305", 
        "25.354600906372"
    ], 
    "OVB": [
        "55.012599945068", 
        "82.650703430176"
    ], 
    "OVD": [
        "43.5635986328125", 
        "-6.0346198081970215"
    ], 
    "PAP": [
        "18.579999923706055", 
        "-72.2925033569336"
    ], 
    "PAT": [
        "25.591299057", 
        "85.0879974365"
    ], 
    "PBI": [
        "26.68320083618164", 
        "-80.09559631347656"
    ], 
    "PBO": [
        "-23.1711006165", 
        "117.745002747"
    ], 
    "PCL": [
        "-8.37794017791748", 
        "-74.57430267333984"
    ], 
    "PDX": [
        "45.58869934", 
        "-122.5979996"
    ], 
    "PEE": [
        "57.914501190186", 
        "56.021198272705"
    ], 
    "PEK": [
        "40.080101013183594", 
        "116.58499908447266"
    ], 
    "PEM": [
        "-12.6135997772", 
        "-69.2285995483"
    ], 
    "PEN": [
        "5.297140121459961", 
        "100.2770004272461"
    ], 
    "PER": [
        "-31.94029998779297", 
        "115.96700286865234"
    ], 
    "PFO": [
        "34.71799850463867", 
        "32.48569869995117"
    ], 
    "PHE": [
        "-20.3777999878", 
        "118.625999451"
    ], 
    "PHL": [
        "39.87189865112305", 
        "-75.24109649658203"
    ], 
    "PHX": [
        "33.43429946899414", 
        "-112.01200103759766"
    ], 
    "PIT": [
        "40.49150085", 
        "-80.23290253"
    ], 
    "PIU": [
        "-5.20574998856", 
        "-80.61640167239999"
    ], 
    "PKZ": [
        "15.132100105285645", 
        "105.78099822998047"
    ], 
    "PLS": [
        "21.77359962463379", 
        "-72.26589965820312"
    ], 
    "PLZ": [
        "-33.9849014282", 
        "25.6173000336"
    ], 
    "PMC": [
        "-41.438899993896484", 
        "-73.09400177001953"
    ], 
    "PMI": [
        "39.551700592", 
        "2.73881006241"
    ], 
    "PNA": [
        "42.77000045776367", 
        "-1.6463299989700317"
    ], 
    "PNH": [
        "11.546600341796875", 
        "104.84400177001953"
    ], 
    "PNQ": [
        "18.58209991455078", 
        "73.9197006225586"
    ], 
    "PNS": [
        "30.473400115967", 
        "-87.186599731445"
    ], 
    "POM": [
        "-9.443380355834961", 
        "147.22000122070312"
    ], 
    "POP": [
        "19.75790023803711", 
        "-70.56999969482422"
    ], 
    "POR": [
        "61.461700439453", 
        "21.799999237061"
    ], 
    "POS": [
        "10.595399856567383", 
        "-61.33720016479492"
    ], 
    "PPT": [
        "-17.5536994934", 
        "-149.606994629"
    ], 
    "PQQ": [
        "-31.4358005524", 
        "152.863006592"
    ], 
    "PRG": [
        "50.1008", 
        "14.26"
    ], 
    "PSA": [
        "43.683899", 
        "10.3927"
    ], 
    "PTP": [
        "16.265300750732422", 
        "-61.53179931640625"
    ], 
    "PTY": [
        "9.0713596344", 
        "-79.3834991455"
    ], 
    "PUJ": [
        "18.567399978599997", 
        "-68.36340332030001"
    ], 
    "PUQ": [
        "-53.002601623535156", 
        "-70.85459899902344"
    ], 
    "PUS": [
        "35.1795005798", 
        "128.93800354"
    ], 
    "PUY": [
        "44.89350128173828", 
        "13.922200202941895"
    ], 
    "PVG": [
        "31.143400192260742", 
        "121.80500030517578"
    ], 
    "PVK": [
        "38.925498962402344", 
        "20.765300750732422"
    ], 
    "PVR": [
        "20.680099487304688", 
        "-105.25399780273438"
    ], 
    "PWM": [
        "43.64619827", 
        "-70.30930328"
    ], 
    "PWQ": [
        "52.19499969482422", 
        "77.07389831542969"
    ], 
    "PXM": [
        "15.8768997192", 
        "-97.08910369870001"
    ], 
    "RAK": [
        "31.606899261499997", 
        "-8.03629970551"
    ], 
    "RDU": [
        "35.877601623535156", 
        "-78.7874984741211"
    ], 
    "REP": [
        "13.410699844400002", 
        "103.81300354"
    ], 
    "REX": [
        "26.008899688699998", 
        "-98.2285003662"
    ], 
    "RGN": [
        "16.907300949099998", 
        "96.1332015991"
    ], 
    "RHO": [
        "36.405399322509766", 
        "28.086200714111328"
    ], 
    "RIC": [
        "37.50519943237305", 
        "-77.3197021484375"
    ], 
    "RIX": [
        "56.92359924316406", 
        "23.971099853515625"
    ], 
    "RMI": [
        "44.020302", 
        "12.6117"
    ], 
    "RNB": [
        "56.266700744629", 
        "15.265000343323"
    ], 
    "RNN": [
        "55.06330108642578", 
        "14.759599685668945"
    ], 
    "ROC": [
        "43.118900299072266", 
        "-77.67240142822266"
    ], 
    "ROK": [
        "-23.3819007874", 
        "150.475006104"
    ], 
    "ROV": [
        "47.2582015991", 
        "39.8180999756"
    ], 
    "RSW": [
        "26.53619956970215", 
        "-81.75520324707031"
    ], 
    "RUH": [
        "24.957599639892578", 
        "46.69879913330078"
    ], 
    "RVN": [
        "66.564796447754", 
        "25.830400466919"
    ], 
    "SAH": [
        "15.476300239562988", 
        "44.21969985961914"
    ], 
    "SAL": [
        "13.4409", 
        "-89.055702"
    ], 
    "SAN": [
        "32.7336006165", 
        "-117.190002441"
    ], 
    "SAP": [
        "15.45259952545166", 
        "-87.92359924316406"
    ], 
    "SAT": [
        "29.533700942993164", 
        "-98.46980285644531"
    ], 
    "SCL": [
        "-33.393001556396484", 
        "-70.78579711914062"
    ], 
    "SCQ": [
        "42.89630126953125", 
        "-8.415140151977539"
    ], 
    "SDJ": [
        "38.1397018433", 
        "140.917007446"
    ], 
    "SDL": [
        "62.528099060058594", 
        "17.443899154663086"
    ], 
    "SDQ": [
        "18.42970085144", 
        "-69.668899536133"
    ], 
    "SDR": [
        "43.427101135253906", 
        "-3.82000994682312"
    ], 
    "SEA": [
        "47.44900131225586", 
        "-122.30899810791016"
    ], 
    "SEZ": [
        "-4.674339771270752", 
        "55.52180099487305"
    ], 
    "SFO": [
        "37.61899948120117", 
        "-122.375"
    ], 
    "SGD": [
        "54.96440124511719", 
        "9.791729927062988"
    ], 
    "SGN": [
        "10.8187999725", 
        "106.652000427"
    ], 
    "SHE": [
        "41.639801025390625", 
        "123.48300170898438"
    ], 
    "SHM": [
        "33.6622009277", 
        "135.363998413"
    ], 
    "SIN": [
        "1.35019", 
        "103.994003"
    ], 
    "SJC": [
        "37.36259841918945", 
        "-121.92900085449219"
    ], 
    "SJD": [
        "23.15180015563965", 
        "-109.72100067138672"
    ], 
    "SJJ": [
        "43.82460021972656", 
        "18.331499099731445"
    ], 
    "SJO": [
        "9.993860244750977", 
        "-84.20880126953125"
    ], 
    "SJU": [
        "18.4393997192", 
        "-66.0018005371"
    ], 
    "SKB": [
        "17.311199188232422", 
        "-62.71870040893555"
    ], 
    "SKG": [
        "40.51969909667969", 
        "22.97089958190918"
    ], 
    "SKP": [
        "41.961601", 
        "21.621401"
    ], 
    "SLA": [
        "-24.856000900299996", 
        "-65.4861984253"
    ], 
    "SLC": [
        "40.78839874267578", 
        "-111.97799682617188"
    ], 
    "SLU": [
        "14.0202", 
        "-60.992901"
    ], 
    "SMF": [
        "38.69540023803711", 
        "-121.59100341796875"
    ], 
    "SNN": [
        "52.701999664307", 
        "-8.9248199462891"
    ], 
    "SOF": [
        "42.696693420410156", 
        "23.411436080932617"
    ], 
    "SOU": [
        "50.95029830932617", 
        "-1.3567999601364136"
    ], 
    "SPC": [
        "28.62649917602539", 
        "-17.755599975585938"
    ], 
    "SPK": [
        "42.79449844359999", 
        "141.666000366"
    ], 
    "SPU": [
        "43.53889846801758", 
        "16.29800033569336"
    ], 
    "SRP": [
        "59.791900634765625", 
        "5.340849876403809"
    ], 
    "SRZ": [
        "-17.8115997314", 
        "-63.1715011597"
    ], 
    "SSG": [
        "3.755270004272461", 
        "8.708720207214355"
    ], 
    "STI": [
        "19.406099319458008", 
        "-70.60469818115234"
    ], 
    "STL": [
        "38.74869918823242", 
        "-90.37000274658203"
    ], 
    "STR": [
        "48.689899444599995", 
        "9.22196006775"
    ], 
    "STT": [
        "18.337299346923828", 
        "-64.97339630126953"
    ], 
    "STX": [
        "17.701900482177734", 
        "-64.79859924316406"
    ], 
    "SUB": [
        "-7.3798298835754395", 
        "112.78700256347656"
    ], 
    "SVO": [
        "55.972599", 
        "37.4146"
    ], 
    "SVQ": [
        "37.417999267578125", 
        "-5.8931097984313965"
    ], 
    "SVX": [
        "56.743099212646", 
        "60.802700042725"
    ], 
    "SXM": [
        "18.041000366200002", 
        "-63.1088981628"
    ], 
    "SXR": [
        "33.987098693847656", 
        "74.77420043945312"
    ], 
    "SYD": [
        "-33.94609832763672", 
        "151.177001953125"
    ], 
    "SYR": [
        "43.11119842529297", 
        "-76.1063003540039"
    ], 
    "SYX": [
        "18.302900314331055", 
        "109.41200256347656"
    ], 
    "SZG": [
        "47.793300628699996", 
        "13.0043001175"
    ], 
    "TAK": [
        "34.214199066199996", 
        "134.01600647"
    ], 
    "TAO": [
        "36.2661018372", 
        "120.374000549"
    ], 
    "TAY": [
        "58.3074989319", 
        "26.690399169900004"
    ], 
    "TBS": [
        "41.6692008972", 
        "44.95470047"
    ], 
    "TCQ": [
        "-18.053300857500002", 
        "-70.2758026123"
    ], 
    "TDX": [
        "12.274600029", 
        "102.319000244"
    ], 
    "TFN": [
        "28.4827003479", 
        "-16.3414993286"
    ], 
    "TFS": [
        "28.044500351", 
        "-16.5725002289"
    ], 
    "TGD": [
        "42.35940170288086", 
        "19.25189971923828"
    ], 
    "TGZ": [
        "16.5636005402", 
        "-93.02249908450001"
    ], 
    "THN": [
        "58.31809997558594", 
        "12.345000267028809"
    ], 
    "THR": [
        "35.68920135498047", 
        "51.31340026855469"
    ], 
    "TIA": [
        "41.4146995544", 
        "19.7206001282"
    ], 
    "TKN": [
        "27.83639907836914", 
        "128.88099670410156"
    ], 
    "TKS": [
        "34.1328010559", 
        "134.606994629"
    ], 
    "TKU": [
        "60.514099121094", 
        "22.262800216675"
    ], 
    "TLL": [
        "59.41329956049999", 
        "24.832799911499997"
    ], 
    "TLS": [
        "43.629101", 
        "1.36382"
    ], 
    "TLV": [
        "32.01139831542969", 
        "34.88669967651367"
    ], 
    "TMP": [
        "61.414100646973", 
        "23.604400634766"
    ], 
    "TMW": [
        "-31.0839004517", 
        "150.847000122"
    ], 
    "TNG": [
        "35.726898193400004", 
        "-5.91689014435"
    ], 
    "TOS": [
        "69.68329620361328", 
        "18.918899536132812"
    ], 
    "TOY": [
        "36.64830017089844", 
        "137.18800354003906"
    ], 
    "TPA": [
        "27.975500106811523", 
        "-82.533203125"
    ], 
    "TPE": [
        "25.0777", 
        "121.233002"
    ], 
    "TPP": [
        "-6.508739948272705", 
        "-76.37319946289062"
    ], 
    "TRU": [
        "-8.08141040802002", 
        "-79.10880279541016"
    ], 
    "TRV": [
        "8.48211956024", 
        "76.9200973511"
    ], 
    "TSE": [
        "51.02220153808594", 
        "71.46690368652344"
    ], 
    "TSN": [
        "39.124401092499994", 
        "117.346000671"
    ], 
    "TSV": [
        "-19.252500534057617", 
        "146.76499938964844"
    ], 
    "TUL": [
        "36.19839859008789", 
        "-95.88809967041016"
    ], 
    "TUN": [
        "36.85100173950195", 
        "10.22719955444336"
    ], 
    "TXL": [
        "52.5597000122", 
        "13.2876996994"
    ], 
    "UBJ": [
        "33.930000305200004", 
        "131.279006958"
    ], 
    "UDR": [
        "24.617700576799997", 
        "73.89610290530001"
    ], 
    "UEO": [
        "26.363500595092773", 
        "126.71399688720703"
    ], 
    "UFA": [
        "54.557498931885", 
        "55.874401092529"
    ], 
    "UGC": [
        "41.58430099487305", 
        "60.641700744628906"
    ], 
    "UIO": [
        "-0.129166666667", 
        "-78.3575"
    ], 
    "UKK": [
        "50.036598205566406", 
        "82.49420166015625"
    ], 
    "UME": [
        "63.791801452637", 
        "20.282800674438"
    ], 
    "URC": [
        "43.907100677490234", 
        "87.47419738769531"
    ], 
    "USH": [
        "-54.8433", 
        "-68.2958"
    ], 
    "USM": [
        "9.547789573669998", 
        "100.06199646"
    ], 
    "UTH": [
        "17.386400222800003", 
        "102.788002014"
    ], 
    "UVF": [
        "13.7332", 
        "-60.952599"
    ], 
    "VAA": [
        "63.050701141357", 
        "21.762199401855"
    ], 
    "VAR": [
        "43.232101", 
        "27.8251"
    ], 
    "VBY": [
        "57.662799835205", 
        "18.346200942993"
    ], 
    "VCE": [
        "45.505299", 
        "12.3519"
    ], 
    "VDA": [
        "29.94029998779297", 
        "34.93579864501953"
    ], 
    "VER": [
        "19.1459007263", 
        "-96.1873016357"
    ], 
    "VFA": [
        "-18.09589958190918", 
        "25.839000701904297"
    ], 
    "VGO": [
        "42.2318000793457", 
        "-8.62677001953125"
    ], 
    "VIE": [
        "48.110298156738", 
        "16.569700241089"
    ], 
    "VLC": [
        "39.48929977416992", 
        "-0.4816249907016754"
    ], 
    "VLI": [
        "-17.699300765991", 
        "168.32000732422"
    ], 
    "VNO": [
        "54.63410186767578", 
        "25.28580093383789"
    ], 
    "VNS": [
        "25.4524002075", 
        "82.8592987061"
    ], 
    "VRN": [
        "45.395699", 
        "10.8885"
    ], 
    "VST": [
        "59.58940124511719", 
        "16.63360023498535"
    ], 
    "VTE": [
        "17.988300323500003", 
        "102.56300354"
    ], 
    "VXO": [
        "56.929100036621094", 
        "14.727999687194824"
    ], 
    "WAW": [
        "52.1656990051", 
        "20.967100143399996"
    ], 
    "WDH": [
        "-22.4799", 
        "17.4709"
    ], 
    "WGA": [
        "-35.1652984619", 
        "147.466003418"
    ], 
    "WLG": [
        "-41.3272018433", 
        "174.804992676"
    ], 
    "WUH": [
        "30.78380012512207", 
        "114.20800018310547"
    ], 
    "XIY": [
        "34.44710159301758", 
        "108.75199890136719"
    ], 
    "XMN": [
        "24.54400062561035", 
        "118.12799835205078"
    ], 
    "XRY": [
        "36.744598388671875", 
        "-6.060110092163086"
    ], 
    "YEG": [
        "53.309700012200004", 
        "-113.580001831"
    ], 
    "YHZ": [
        "44.8807983398", 
        "-63.5085983276"
    ], 
    "YOW": [
        "45.3224983215332", 
        "-75.66919708251953"
    ], 
    "YUL": [
        "45.4706001282", 
        "-73.7407989502"
    ], 
    "YVR": [
        "49.193901062", 
        "-123.183998108"
    ], 
    "YYC": [
        "51.113899231", 
        "-114.019996643"
    ], 
    "YYZ": [
        "43.6772003174", 
        "-79.63059997559999"
    ], 
    "ZAG": [
        "45.7429008484", 
        "16.0687999725"
    ], 
    "ZAL": [
        "-39.6500015259", 
        "-73.0860977173"
    ], 
    "ZCL": [
        "22.8971004486", 
        "-102.68699646"
    ], 
    "ZCO": [
        "-38.766799926758", 
        "-72.637100219727"
    ], 
    "ZNE": [
        "-23.417800903299998", 
        "119.803001404"
    ], 
    "ZOS": [
        "-40.61119842529297", 
        "-73.06099700927734"
    ], 
    "ZQN": [
        "-45.0210990906", 
        "168.738998413"
    ], 
    "ZRH": [
        "47.464698791504", 
        "8.5491695404053"
    ], 
    "ZTH": [
        "37.75090026855469", 
        "20.884300231933594"
    ], 
    "ZVK": [
        "16.55660057067871", 
        "104.76000213623047"
    ]
}